<?xml version="1.0" encoding="UTF-8"?>
<COLLADA xmlns="http://www.collada.org/2005/11/COLLADASchema" version="1.4.1">
    <asset>
        <contributor>
            <author>VCGLab</author>
            <authoring_tool>VCGLib | MeshLab</authoring_tool>
        </contributor>
        <up_axis>Y_UP</up_axis>
        <created>qua Jul 26 09:55:03 2017</created>
        <modified>qua Jul 26 09:55:03 2017</modified>
    </asset>
    <library_images/>
    <library_materials/>
    <library_effects/>
    <library_geometries>
        <geometry id="shape0-lib" name="shape0">
            <mesh>
                <source id="shape0-lib-positions" name="position">
                    <float_array id="shape0-lib-positions-array" count="1086">0.241451 0.158 0.0758846 0.36701 0.158 0.0582384 0.30299 0.158 0.0582384 0.667753 0 0.252931 0.667753 0.108 0.252931 0.661043 0 0.220305 0.649958 0 0.188561 0.61532 0 0.129402 0.634649 0.108 0.158124 0.61532 0.108 0.129402 0.592231 0 0.102781 0.565691 0 0.0786177 0.536057 0 0.0572362 0.46913 0 0.0239252 0.432736 0.108 0.0124425 0.395031 0.108 0.00462943 0.356521 0 0.000590771 0.356521 0.108 0.000590771 0.241336 0.108 0.0114062 0.204774 0 0.0224939 0.169959 0 0.0371164 0.169959 0.108 0.0371164 0.137358 0 0.0550776 0.137358 0.108 0.0550776 0.107409 0 0.0761364 0.057029 0 0.126379 0.037275 0 0.15489 0.057029 0.108 0.126379 0.0215147 0 0.185159 0.0215147 0.108 0.185159 0.00995976 0.108 0.21678 0.00995976 0 0.21678 0.00276497 0.108 0.24933 2.69413e-05 0.108 0.282373 0.00178239 0 0.315463 0.00800776 0 0.348159 0.00800776 0.108 0.348159 0.0186195 0 0.380021 0.0186195 0.108 0.380021 0.052376 0 0.43955 0.052376 0.108 0.43955 0.0750679 0 0.466419 0.0750679 0.108 0.466419 0.101247 0.108 0.490868 0.162618 0.108 0.53123 0.162618 0 0.53123 0.233208 0.108 0.558477 0.270794 0 0.566698 0.309241 0 0.571153 0.309241 0.108 0.571153 0.386652 0 0.56858 0.386652 0.108 0.56858 0.424577 0 0.561586 0.49633 0.108 0.536651 0.529195 0.108 0.519044 0.559455 0.108 0.498311 0.610577 0.108 0.448618 0.630753 0.108 0.420324 0.646962 0.108 0.390228 0.658986 0 0.358734 0.669892 0 0.293254 0.669892 0.108 0.293254 0.56486 0.108 0.277973 0.56374 0.108 0.310042 0.413665 0.108 0.502129 0.424577 0.108 0.561586 0.461301 0.108 0.550895 0.442979 0.108 0.489078 0.67 0.108 0.286 0.661043 0.108 0.220305 0.558168 0.108 0.341642 0.658986 0.108 0.358734 0.666664 0.108 0.326264 0.586704 0.108 0.47473 0.548252 0.108 0.37216 0.10626 0.108 0.310042 0.121748 0.108 0.37216 0.135814 0.108 0.401 0.0334754 0.108 0.410621 0.649958 0.108 0.188561 0.592231 0.108 0.102781 0.505923 0.108 0.1321 0.565691 0.108 0.0786177 0.482841 0.108 0.10981 0.536057 0.108 0.0572362 0.503725 0.108 0.0389236 0.46913 0.108 0.0239252 0.428549 0.108 0.0758846 0.38282 0.108 0.510974 0.348034 0.108 0.571783 0.335 0.108 0.516 0.270794 0.108 0.566698 0.318956 0.108 0.51544 0.256335 0.108 0.502129 0.196987 0.108 0.546601 0.130561 0.108 0.512568 0.00178239 0.108 0.315463 0.36701 0.108 0.0582384 0.317721 0.108 0.000380695 0.30299 0.108 0.0582384 0.279154 0.108 0.00400203 0.241451 0.108 0.0758846 0.204774 0.108 0.0224939 0.213119 0.108 0.090949 0.187159 0.108 0.10981 0.164077 0.108 0.1321 0.107409 0.108 0.0761364 0.0805119 0.108 0.10001 0.037275 0.108 0.15489 0.116257 0.108 0.214926 0.108494 0.108 0.246061 0.241336 0 0.0114062 0.279154 0 0.00400203 0.317721 0 0.000380695 0.348034 0 0.571783 0.395031 0 0.00462943 0.432736 0 0.0124425 0.529195 0 0.519044 0.49633 0 0.536651 0.461301 0 0.550895 0.233208 0 0.558477 0.196987 0 0.546601 0.0805119 0 0.10001 0.503725 0 0.0389236 0.630753 0 0.420324 0.610577 0 0.448618 0.586704 0 0.47473 0.559455 0 0.498311 0.130561 0 0.512568 0.101247 0 0.490868 0.67 0 0.286 0.634649 0 0.158124 0.666664 0 0.326264 0.646962 0 0.390228 0.00276497 0 0.24933 0.0334754 0 0.410621 2.69413e-05 0 0.282373 0.230259 0.158 0.0812333 0.213119 0.158 0.090949 0.187159 0.158 0.10981 0.144321 0.108 0.157386 0.128277 0.108 0.185175 0.116257 0.158 0.214926 0.10514 0.158 0.277973 0.10514 0.108 0.277973 0.111832 0.108 0.341642 0.121748 0.158 0.37216 0.153758 0.108 0.427602 0.175229 0.108 0.451448 0.199809 0.108 0.472074 0.227022 0.108 0.489078 0.230259 0.158 0.490767 0.28718 0.158 0.510974 0.28718 0.108 0.510974 0.351044 0.108 0.51544 0.505923 0.158 0.1321 0.525679 0.108 0.157386 0.525679 0.158 0.157386 0.541723 0.158 0.185175 0.541723 0.108 0.185175 0.553743 0.158 0.214926 0.553743 0.108 0.214926 0.561506 0.158 0.246061 0.561506 0.108 0.246061 0.56486 0.158 0.277973 0.56374 0.158 0.310042 0.558168 0.158 0.341642 0.534186 0.108 0.401 0.516243 0.158 0.427602 0.516243 0.108 0.427602 0.494771 0.108 0.451448 0.470191 0.108 0.472074 0.470191 0.158 0.472074 0.442979 0.158 0.489078 0.439741 0.158 0.490767 0.271603 0.158 0.0649098 0.271603 0.108 0.0649098 0.335 0.158 0.056 0.335 0.108 0.056 0.398397 0.158 0.0649098 0.398397 0.108 0.0649098 0.428549 0.158 0.0758846 0.456881 0.108 0.090949 0.482841 0.158 0.10981 0.318956 0.158 0.51544 0.351044 0.158 0.51544 0.413665 0.158 0.502129 0.256335 0.158 0.502129 0.38282 0.158 0.510974 0.608858 0.158 0.448124 0.542874 0.158 0.48949 0.494771 0.158 0.451448 0.598675 0.158 0.460442 0.534186 0.158 0.401 0.586659 0.158 0.470979 0.573118 0.158 0.479468 0.558398 0.158 0.485691 0.548252 0.158 0.37216 0.67 0.158 0.300805 0.439741 0.158 0.0812333 0.456881 0.158 0.090949 0.67 0.158 0.271233 0.635585 0.158 0.162084 0.573091 0.158 0.0925322 0.526916 0.158 0.0812333 0.558371 0.158 0.086309 0.164077 0.158 0.1321 0.0833678 0.158 0.101021 0.10626 0.158 0.310042 0.108494 0.158 0.246061 0.128277 0.158 0.185175 0.0611685 0.158 0.123876 0.144321 0.158 0.157386 0.143084 0.158 0.490767 0.199809 0.158 0.472074 0.227022 0.158 0.489078 0.0969088 0.158 0.479468 0.111629 0.158 0.485691 0.111832 0.158 0.341642 0.0611685 0.158 0.448124 0.0713521 0.158 0.460442 0.135814 0.158 0.401 0.175229 0.158 0.451448 0.153758 0.158 0.427602 0.0611685 0.31 0.448124 0.0713521 0.31 0.460442 0.0833678 0.158 0.470979 0.0833678 0.31 0.470979 0.127153 0.158 0.48949 0.127153 0.31 0.48949 0.143084 0.31 0.490767 0.526943 0.158 0.490767 0.542874 0.31 0.48949 0.573118 0.31 0.479468 0.635585 0.158 0.409954 0.608858 0.31 0.448124 0.608832 0.158 0.123876 0.598648 0.158 0.111558 0.586632 0.158 0.101021 0.573091 0.31 0.0925322 0.558371 0.31 0.086309 0.542847 0.158 0.0825104 0.143084 0.31 0.0812333 0.143084 0.158 0.0812333 0.127153 0.158 0.0825104 0.127153 0.31 0.0825104 0.111629 0.158 0.086309 0.111629 0.31 0.086309 0.0969088 0.158 0.0925322 0.0833678 0.31 0.101021 0.0713521 0.158 0.111558 0.0713521 0.31 0.111558 0.0344146 0.31 0.162084 0.0611685 0.31 0.123876 0 0.158 0.271233 0.0344146 0.158 0.162084 0 0.158 0.300767 0.0344146 0.158 0.409916 0.248223 0.31 0.105806 0.393951 0.31 0.477115 0.586659 0.31 0.470979 0.598675 0.31 0.460442 0.508205 0.31 0.386 0.198965 0.31 0.13939 0.491366 0.31 0.410698 0.558398 0.31 0.485691 0.364808 0.31 0.483766 0.335 0.31 0.486 0.526943 0.31 0.490767 0.305192 0.31 0.0882338 0.148825 0.31 0.359068 0.0344146 0.31 0.409916 0.140014 0.31 0.330504 0 0.31 0.300767 0 0.31 0.271233 0.178634 0.31 0.161302 0.161795 0.31 0.186 0.0969088 0.31 0.0925322 0.148825 0.31 0.212932 0.198965 0.31 0.43261 0.0969088 0.31 0.479468 0.111629 0.31 0.485691 0.586632 0.31 0.101021 0.598648 0.31 0.111558 0.608832 0.31 0.123876 0.521175 0.31 0.212932 0.635585 0.31 0.162084 0.534441 0.31 0.271054 0.67 0.31 0.271233 0.67 0.31 0.300805 0.534441 0.31 0.300946 0.529986 0.31 0.330504 0.635585 0.31 0.409954 0.526916 0.31 0.0812333 0.447664 0.31 0.120752 0.471035 0.31 0.13939 0.542847 0.31 0.0825104 0.491366 0.31 0.161302 0.364808 0.31 0.0882338 0.393951 0.31 0.0948855 0.421777 0.31 0.105806 0.447664 0.769 0.120752 0.471035 0.769 0.13939 0.491366 0.769 0.161302 0.508205 0.769 0.186 0.508205 0.31 0.186 0.529986 0.31 0.241496 0.529986 0.769 0.330504 0.521175 0.769 0.359068 0.521175 0.31 0.359068 0.491366 0.769 0.410698 0.471035 0.769 0.43261 0.471035 0.31 0.43261 0.447664 0.769 0.451248 0.447664 0.31 0.451248 0.421777 0.31 0.466194 0.421777 0.769 0.466194 0.335 0.769 0.486 0.305192 0.769 0.483766 0.305192 0.31 0.483766 0.276049 0.769 0.477115 0.276049 0.31 0.477115 0.248223 0.769 0.466194 0.248223 0.31 0.466194 0.222336 0.769 0.451248 0.198965 0.769 0.43261 0.222336 0.31 0.451248 0.178634 0.31 0.410698 0.161795 0.769 0.386 0.161795 0.31 0.386 0.148825 0.769 0.359068 0.135559 0.31 0.300946 0.135559 0.31 0.271054 0.148825 0.769 0.212932 0.140014 0.31 0.241496 0.161795 0.769 0.186 0.178634 0.769 0.161302 0.198965 0.769 0.13939 0.222336 0.31 0.120752 0.222336 0.769 0.120752 0.248223 0.769 0.105806 0.276049 0.769 0.0948855 0.305192 0.769 0.0882338 0.276049 0.31 0.0948855 0.335 0.31 0.086 0.364808 0.769 0.483766 0.178634 0.769 0.410698 0.135559 0.769 0.300946 0.140014 0.769 0.330504 0.140014 0.769 0.241496 0.135559 0.769 0.271054 0.364808 0.769 0.0882338 0.335 0.769 0.086 0.421777 0.769 0.105806 0.393951 0.769 0.0948855 0.534441 0.769 0.271054 0.529986 0.769 0.241496 0.521175 0.769 0.212932 0.534441 0.769 0.300946 0.508205 0.769 0.386 0.393951 0.769 0.477115 0.335 0.769 0.286</float_array>
                    <technique_common>
                        <accessor count="362" source="#shape0-lib-positions-array" stride="3">
                            <param name="X" type="float"/>
                            <param name="Y" type="float"/>
                            <param name="Z" type="float"/>
                        </accessor>
                    </technique_common>
                </source>
                <source id="shape0-lib-normals" name="normal">
                    <float_array id="shape0-lib-normals-array" count="2160">0 1 0 0 1 0 0 1 0 0 1 0 0 1 0 0 1 0 0 1 0 0.99989 0 0.0148536 0.9977 0 -0.0677879 0.9977 0 -0.0677879 0.979495 0 -0.20147 0.979495 0 -0.20147 0.944101 0 -0.329657 0.944101 0 -0.329657 0.893361 0 -0.44934 0.893361 0 -0.44934 0.829629 0 -0.558315 0.829629 0 -0.558315 0.755441 0 -0.655217 0.755441 0 -0.655217 0.673226 0 -0.739437 0.673226 0 -0.739437 0.585109 0 -0.810955 0.585109 0 -0.810955 0.49284 0 -0.87012 0.49284 0 -0.87012 0.397769 0 -0.917486 0.397769 0 -0.917486 0.300889 0 -0.953659 0.300889 0 -0.953659 0.202905 0 -0.979198 0.202905 0 -0.979198 0.1043 0 -0.994546 0.1043 0 -0.994546 0.00541438 0 -0.999985 0.00541438 0 -0.999985 -0.0934852 0 -0.995621 -0.0934852 0 -0.995621 -0.192136 0 -0.981368 -0.192136 0 -0.981368 -0.290208 0 -0.956963 -0.290208 0 -0.956963 -0.387238 0 -0.92198 -0.387238 0 -0.92198 -0.48255 0 -0.875868 -0.48255 0 -0.875868 -0.575185 0 -0.818023 -0.575185 0 -0.818023 -0.663834 0 -0.74788 -0.663834 0 -0.74788 -0.746793 0 -0.665057 -0.746793 0 -0.665057 -0.821974 0 -0.569526 -0.821974 0 -0.569526 -0.886972 0 -0.461823 -0.886972 0 -0.461823 -0.939256 0 -0.343217 -0.939256 0 -0.343217 -0.976432 0 -0.215827 -0.976432 0 -0.215827 -0.996584 0 -0.0825818 -0.996584 0 -0.0825818 -0.998596 0 0.0529748 -0.998596 0 0.0529748 -0.982352 0 0.187044 -0.982352 0 0.187044 -0.948762 0 0.315992 -0.948762 0 0.315992 -0.899592 0 0.436732 -0.899592 0 0.436732 -0.83716 0 0.546958 -0.83716 0 0.546958 -0.763995 0 0.645222 -0.763995 0 0.645222 -0.682546 0 0.730842 -0.682546 0 0.730842 -0.594984 0 0.803737 -0.594984 0 0.803737 -0.503097 0 0.86423 -0.503097 0 0.86423 -0.408278 0 0.912858 -0.408278 0 0.912858 -0.311557 0 0.950227 -0.311557 0 0.950227 -0.213667 0 0.976907 -0.213667 0 0.976907 -0.115111 0 0.993353 -0.115111 0 0.993353 -0.0162431 0 0.999868 -0.0162431 0 0.999868 0.0826682 0 0.996577 0.0826682 0 0.996577 0.181361 0 0.983417 0.181361 0 0.983417 0.279514 0 0.960142 0.279514 0 0.960142 0.376688 0 0.92634 0.376688 0 0.92634 0.472226 0 0.881477 0.472226 0 0.881477 0.565215 0 0.824944 0.565215 0 0.824944 0.654374 0 0.756171 0.654374 0 0.756171 0.738052 0 0.674744 0.738052 0 0.674744 0.814194 0 0.580592 0.814194 0 0.580592 0.880433 0 0.474171 0.880433 0 0.474171 0.93423 0 0.356671 0.93423 0 0.356671 0.973164 0 0.230114 0.973164 0 0.230114 0.995251 0 0.0973464 0.995251 0 0.0973464 0.99989 0 0.0148536 0 1 0 0 1 0 0 1 0 0 1 0 0 1 0 0 1 0 0 1 0 0 1 0 0 1 0 0 1 0 0 1 0 0 1 0 0 1 0 0 1 0 0 1 0 0 1 0 0 1 0 0 1 0 0 1 0 0 1 0 0 1 0 0 1 0 0 1 0 0 1 0 0 1 0 0 1 0 0 1 0 0 1 0 0 1 0 0 1 0 0 1 0 0 1 0 0 1 0 0 1 0 0 1 0 0 1 0 0 1 0 0 1 0 0 1 0 0 1 0 0 1 0 0 1 0 0 1 0 0 1 0 0 1 0 0 1 0 0 1 0 0 1 0 0 1 0 0 1 0 0 1 0 0 1 0 0 1 0 0 1 0 0 1 0 0 1 0 0 1 0 0 1 0 0 1 0 0 1 0 0 1 0 0 1 0 0 1 0 0 1 0 0 1 0 0 1 0 0 1 0 0 1 0 0 1 0 0 1 0 0 1 0 0 1 0 0 1 0 0 1 0 0 1 0 0 1 0 0 1 0 0 1 0 0 1 0 0 1 0 0 1 0 0 1 0 0 1 0 0 1 0 0 1 0 0 1 0 0 1 0 0 1 0 0 1 0 0 1 0 0 1 0 0 1 0 0 1 0 0 1 0 0 1 0 0 1 0 0 1 0 0 1 0 0 1 0 0 1 0 0 1 0 0 -1 0 0 -1 0 0 -1 0 0 -1 0 0 -1 0 0 -1 0 0 -1 0 0 -1 0 0 -1 0 0 -1 0 0 -1 0 0 -1 0 0 -1 0 0 -1 0 0 -1 0 0 -1 0 0 -1 0 0 -1 0 0 -1 0 0 -1 0 0 -1 0 0 -1 0 0 -1 0 0 -1 0 0 -1 0 0 -1 0 0 -1 0 0 -1 0 0 -1 0 0 -1 0 0 -1 0 0 -1 0 0 -1 0 0 -1 0 0 -1 0 0 -1 0 0 -1 0 0 -1 0 0 -1 0 0 -1 0 0 -1 0 0 -1 0 0 -1 0 0 -1 0 0 -1 0 0 -1 0 0 -1 0 0 -1 0 0 -1 0 0 -1 0 0 -1 0 0 -1 0 0 -1 0 -0.469445 -0.0106249 -0.882898 -0.493109 0 -0.869968 -0.587785 0 -0.809017 -0.587785 0 -0.809017 -0.694659 0 -0.719339 -0.694659 0 -0.719339 -0.788011 0 -0.615662 -0.788011 0 -0.615662 -0.866025 0 -0.5 -0.866025 0 -0.5 -0.927184 0 -0.374606 -0.927184 0 -0.374606 -0.970296 0 -0.241922 -0.970296 0 -0.241922 -0.994522 0 -0.104528 -0.994522 0 -0.104528 -0.999391 0 0.0348994 -0.999391 0 0.0348994 -0.984808 0 0.173648 -0.984808 0 0.173648 -0.951057 0 0.309017 -0.951057 0 0.309017 -0.898794 0 0.438371 -0.898794 0 0.438371 -0.829038 0 0.559193 -0.829038 0 0.559193 -0.743145 0 0.669131 -0.743145 0 0.669131 -0.642787 0 0.766045 -0.642787 0 0.766045 -0.529919 0 0.848048 -0.529919 0 0.848048 -0.462448 0 0.886646 -0.406732 -0.00451631 0.913536 -0.399471 0 0.916746 -0.275639 0 0.961261 -0.275639 0 0.961261 -0.139174 0 0.990268 -0.139174 0 0.990268 -0.0349005 0 0.999391 0 0.011205 0.999937 0.275638 0 0.961262 0.139174 0 0.990268 0.139174 0 0.990268 0.0349004 0 0.999391 0.587785 0 -0.809017 0.694658 0 -0.71934 0.694658 0 -0.71934 0.788011 0 -0.615661 0.788011 0 -0.615661 0.866026 0 -0.5 0.866026 0 -0.5 0.927184 0 -0.374606 0.927184 0 -0.374606 0.970295 0 -0.241924 0.970295 0 -0.241924 0.994522 0 -0.104526 0.994522 0 -0.104526 0.999391 0 0.0348994 0.999391 0 0.0348994 0.984808 0 0.173646 0.984808 0 0.173646 0.951056 0 0.309018 0.951056 0 0.309018 0.898795 0 0.438369 0.898795 0 0.438369 0.829037 0 0.559194 0.829037 0 0.559194 0.743145 0 0.669131 0.743145 0 0.669131 0.642788 0 0.766045 0.642788 0 0.766045 0.529919 0 0.848048 0.529919 0 0.848048 0.462448 0 0.886646 0.406733 -0.00451629 0.913536 0.399471 0 0.916746 0.275638 0 0.961262 -0.431222 0 -0.902246 -0.34202 0 -0.939693 -0.34202 0 -0.939693 -0.207912 0 -0.978148 -0.207912 0 -0.978148 -0.0697568 0 -0.997564 -0.0697568 0 -0.997564 0.0697566 0 -0.997564 0.0697566 0 -0.997564 0.207912 0 -0.978148 0.207912 0 -0.978148 0.34202 0 -0.939693 0.34202 0 -0.939693 0.431222 0 -0.902246 0.469445 -0.010625 -0.882898 0.493109 0 -0.869967 0.587785 0 -0.809017 0 1 0 0 1 0 0 1 0 0 1 0 0 1 0 0 1 0 0 -1 0 0 -1 0 0 -1 0 0 -1 0 0 -1 0 0 -1 0 0 -1 0 0 -1 0 0 -1 0 0 -1 0 0 -1 0 0 -1 0 0 -1 0 0 -1 0 0 -1 0 0 -1 0 0 -1 0 0 -1 0 0 -1 0 0 -1 0 0 -1 0 0 -1 0 0 -1 0 0 -1 0 0 -1 0 0 -1 0 0 -1 0 0 -1 0 0 -1 0 0 -1 0 0 -1 0 0 -1 0 0 -1 0 0 -1 0 0 -1 0 0 -1 0 0 -1 0 0 -1 0 0 -1 0 0 -1 0 0 -1 0 0 -1 0 0 -1 0 0 -1 0 0 -1 0 0 -1 0 0 -1 0 0 -1 0 0 -1 0 0 -1 0 0 -1 0 0 -1 0 0 -1 0 0 -1 0 0 -1 0 0 -1 0 0 -1 0 0 -1 0 0 -1 0 0 -1 0 0 -1 0 0 -1 0 0 -1 0 0 -1 0 0 -1 0 0 -1 0 0 -1 0 0 -1 0 -0.770698 0 0.637201 -0.770698 0 0.637201 -0.659348 0 0.751838 -0.659348 0 0.751838 -0.531151 0 0.847277 -0.531151 0 0.847277 -0.389391 0 0.921072 -0.389391 0 0.921072 -0.237687 0 0.971342 -0.237687 0 0.971342 -0.0799071 0 0.996802 -0.0799071 0 0.996802 0 0 1 0 0 1 0 0 1 0 0 1 0.0799073 0 0.996802 0.0799073 0 0.996802 0.237687 0 0.971342 0.237687 0 0.971342 0.38939 0 0.921073 0.38939 0 0.921073 0.531152 0 0.847277 0.531152 0 0.847277 0.659349 0 0.751837 0.659349 0 0.751837 0.770699 0 0.6372 0.770699 0 0.6372 0.819151 0 0.573578 0.819151 0 0.573578 0.953717 0 0.300705 0.953717 0 0.300705 1 0 0 1 0 0 0.953717 0 -0.300705 0.953717 0 -0.300705 0.819152 0 -0.573577 0.819152 0 -0.573577 0.770698 0 -0.637201 0.770698 0 -0.637201 0.659347 0 -0.751839 0.659347 0 -0.751839 0.531149 0 -0.847278 0.531149 0 -0.847278 0.389395 0 -0.921071 0.389395 0 -0.921071 0.237686 0 -0.971342 0.237686 0 -0.971342 0.079909 0 -0.996802 0.079909 0 -0.996802 0 0 -1 0 0 -1 0 0 -1 0 0 -1 -0.0799094 0 -0.996802 -0.0799094 0 -0.996802 -0.237686 0 -0.971342 -0.237686 0 -0.971342 -0.389393 0 -0.921072 -0.389393 0 -0.921072 -0.531152 0 -0.847277 -0.531152 0 -0.847277 -0.659346 0 -0.751839 -0.659346 0 -0.751839 -0.770699 0 -0.6372 -0.770699 0 -0.6372 -0.819152 0 -0.573577 -0.819152 0 -0.573577 -0.953717 0 -0.300706 -0.953717 0 -0.300706 -1 0 0 -1 0 0 -0.953717 0 0.300706 -0.953717 0 0.300706 -0.819152 0 0.573576 -0.819152 0 0.573576 0 1 0 0 1 0 0 1 0 0 1 0 0 1 0 0 1 0 0 1 0 0 1 0 0 1 0 0 1 0 0 1 0 0 1 0 0 1 0 0 1 0 0 1 0 0 1 0 0 1 0 0 1 0 0 1 0 0 1 0 0 1 0 0 1 0 0 1 0 0 1 0 0 1 0 0 1 0 0 1 0 0 1 0 0 1 0 0 1 0 0 1 0 0 1 0 0 1 0 0 1 0 0 1 0 0 1 0 0 1 0 0 1 0 0 1 0 0 1 0 0 1 0 0 1 0 0 1 0 0 1 0 0 1 0 0 1 0 0 1 0 0 1 0 0 1 0 0 1 0 0 1 0 0 1 0 0 1 0 0 1 0 0 1 0 0 1 0 0 1 0 0 1 0 0 1 0 0 1 0 0 1 0 0 1 0 0 1 0 0 1 0 0 1 0 0 1 0 0 1 0 0 1 0 0 1 0 0 1 0 0 1 0 0 1 0 0 1 0 0 1 0 0 1 0 0 1 0 0 1 0 0 1 0 0.0747299 0 -0.997204 0.222521 0 -0.974928 0.222521 0 -0.974928 0.365341 0 -0.930874 0.365341 0 -0.930874 0.5 0 -0.866026 0.5 0 -0.866026 0.62349 0 -0.781831 0.62349 0 -0.781831 0.733051 0 -0.680173 0.733051 0 -0.680173 0.82624 0 -0.563318 0.82624 0 -0.563318 0.900967 0 -0.433887 0.900967 0 -0.433887 0.955573 0 -0.294753 0.955573 0 -0.294753 0.988831 0 -0.149041 0.988831 0 -0.149041 1 0 0 1 0 0 0.988831 0 0.149041 0.988831 0 0.149041 0.955573 0 0.294753 0.955573 0 0.294753 0.900967 0 0.433887 0.900967 0 0.433887 0.82624 0 0.563318 0.82624 0 0.563318 0.733051 0 0.680174 0.733051 0 0.680174 0.62349 0 0.781831 0.62349 0 0.781831 0.5 0 0.866025 0.5 0 0.866025 0.365341 0 0.930874 0.365341 0 0.930874 0.222522 0 0.974928 0.222522 0 0.974928 0.074729 0 0.997204 0.074729 0 0.997204 -0.0747291 0 0.997204 -0.0747291 0 0.997204 -0.222522 0 0.974928 -0.222522 0 0.974928 -0.365342 0 0.930874 -0.365342 0 0.930874 -0.500001 0 0.866025 -0.500001 0 0.866025 -0.623489 0 0.781832 -0.623489 0 0.781832 -0.733052 0 0.680173 -0.733052 0 0.680173 -0.82624 0 0.563319 -0.82624 0 0.563319 -0.900969 0 0.433884 -0.900969 0 0.433884 -0.955573 0 0.294756 -0.955573 0 0.294756 -0.988831 0 0.149042 -0.988831 0 0.149042 -1 0 0 -1 0 0 -0.988831 0 -0.149042 -0.988831 0 -0.149042 -0.955573 0 -0.294755 -0.955573 0 -0.294755 -0.900969 0 -0.433884 -0.900969 0 -0.433884 -0.826239 0 -0.56332 -0.826239 0 -0.56332 -0.733052 0 -0.680172 -0.733052 0 -0.680172 -0.623489 0 -0.781832 -0.623489 0 -0.781832 -0.5 0 -0.866025 -0.5 0 -0.866025 -0.365342 0 -0.930874 -0.365342 0 -0.930874 -0.222521 0 -0.974928 -0.222521 0 -0.974928 -0.0747301 0 -0.997204 -0.0747301 0 -0.997204 0.0747299 0 -0.997204 0 1 0 0 1 0 0 1 0 0 1 0 0 1 0 0 1 0 0 1 0 0 1 0 0 1 0 0 1 0 0 1 0 0 1 0 0 1 0 0 1 0 0 1 0 0 1 0 0 1 0 0 1 0 0 1 0 0 1 0 0 1 0 0 1 0 0 1 0 0 1 0 0 1 0 0 1 0 0 1 0 0 1 0 0 1 0 0 1 0 0 1 0 0 1 0 0 1 0 0 1 0 0 1 0 0 1 0 0 1 0 0 1 0 0 1 0 0 1 0 0 1 0 0 1 0</float_array>
                    <technique_common>
                        <accessor count="720" source="#shape0-lib-normals-array" stride="3">
                            <param name="X" type="float"/>
                            <param name="Y" type="float"/>
                            <param name="Z" type="float"/>
                        </accessor>
                    </technique_common>
                </source>
                <vertices id="shape0-lib-vertices">
                    <input semantic="POSITION" source="#shape0-lib-positions"/>
                </vertices>
                <triangles count="720">
                    <input offset="0" semantic="VERTEX" source="#shape0-lib-vertices"/>
                    <input offset="1" semantic="NORMAL" source="#shape0-lib-normals"/>
                    <p>137 0 199 0 0 0 0 1 199 1 181 1 0 2 181 2 179 2 179 3 1 3 0 3 0 4 1 4 177 4 0 5 177 5 175 5 175 6 177 6 2 6 61 7 130 7 68 7 68 8 130 8 3 8 68 9 3 9 4 9 4 10 3 10 5 10 4 11 5 11 69 11 69 12 5 12 6 12 69 13 6 13 79 13 79 14 6 14 131 14 79 15 131 15 8 15 8 16 131 16 7 16 8 17 7 17 9 17 9 18 7 18 10 18 9 19 10 19 80 19 80 20 10 20 11 20 80 21 11 21 82 21 82 22 11 22 12 22 82 23 12 23 84 23 84 24 12 24 123 24 84 25 123 25 85 25 85 26 123 26 13 26 85 27 13 27 86 27 86 28 13 28 116 28 86 29 116 29 14 29 14 30 116 30 115 30 14 31 115 31 15 31 15 32 115 32 16 32 15 33 16 33 17 33 17 34 16 34 113 34 17 35 113 35 98 35 98 36 113 36 112 36 98 37 112 37 100 37 100 38 112 38 111 38 100 39 111 39 18 39 18 40 111 40 19 40 18 41 19 41 102 41 102 42 19 42 20 42 102 43 20 43 21 43 21 44 20 44 22 44 21 45 22 45 23 45 23 46 22 46 24 46 23 47 24 47 106 47 106 48 24 48 122 48 106 49 122 49 107 49 107 50 122 50 25 50 107 51 25 51 27 51 27 52 25 52 26 52 27 53 26 53 108 53 108 54 26 54 28 54 108 55 28 55 29 55 29 56 28 56 31 56 29 57 31 57 30 57 30 58 31 58 134 58 30 59 134 59 32 59 32 60 134 60 136 60 32 61 136 61 33 61 33 62 136 62 34 62 33 63 34 63 96 63 96 64 34 64 35 64 96 65 35 65 36 65 36 66 35 66 37 66 36 67 37 67 38 67 38 68 37 68 135 68 38 69 135 69 78 69 78 70 135 70 39 70 78 71 39 71 40 71 40 72 39 72 41 72 40 73 41 73 42 73 42 74 41 74 129 74 42 75 129 75 43 75 43 76 129 76 128 76 43 77 128 77 95 77 95 78 128 78 45 78 95 79 45 79 44 79 44 80 45 80 121 80 44 81 121 81 94 81 94 82 121 82 120 82 94 83 120 83 46 83 46 84 120 84 47 84 46 85 47 85 91 85 91 86 47 86 48 86 91 87 48 87 49 87 49 88 48 88 114 88 49 89 114 89 89 89 89 90 114 90 50 90 89 91 50 91 51 91 51 92 50 92 52 92 51 93 52 93 65 93 65 94 52 94 119 94 65 95 119 95 66 95 66 96 119 96 118 96 66 97 118 97 53 97 53 98 118 98 117 98 53 99 117 99 54 99 54 100 117 100 127 100 54 101 127 101 55 101 55 102 127 102 126 102 55 103 126 103 73 103 73 104 126 104 125 104 73 105 125 105 56 105 56 106 125 106 124 106 56 107 124 107 57 107 57 108 124 108 133 108 57 109 133 109 58 109 58 110 133 110 59 110 58 111 59 111 71 111 71 112 59 112 132 112 71 113 132 113 72 113 72 114 132 114 60 114 72 115 60 115 61 115 61 116 60 116 130 116 89 117 51 117 88 117 61 118 62 118 63 118 88 119 51 119 64 119 64 120 51 120 65 120 64 121 65 121 67 121 67 122 65 122 66 122 67 123 66 123 171 123 61 124 68 124 62 124 62 125 68 125 4 125 62 126 4 126 163 126 163 127 4 127 69 127 163 128 69 128 161 128 161 129 69 129 79 129 161 130 79 130 159 130 74 131 58 131 70 131 70 132 58 132 71 132 70 133 71 133 63 133 63 134 71 134 72 134 63 135 72 135 61 135 66 136 53 136 171 136 171 137 53 137 54 137 171 138 54 138 170 138 170 139 54 139 55 139 170 140 55 140 169 140 169 141 55 141 73 141 169 142 73 142 167 142 167 143 73 143 56 143 167 144 56 144 74 144 74 145 56 145 57 145 74 146 57 146 58 146 75 147 36 147 145 147 145 148 36 148 38 148 145 149 38 149 76 149 76 150 38 150 78 150 76 151 78 151 77 151 77 152 78 152 40 152 77 153 40 153 147 153 79 154 8 154 159 154 159 155 8 155 9 155 159 156 9 156 156 156 156 157 9 157 80 157 156 158 80 158 81 158 81 159 80 159 82 159 81 160 82 160 83 160 83 161 82 161 84 161 83 162 84 162 182 162 182 163 84 163 85 163 182 164 85 164 87 164 87 165 85 165 86 165 87 166 86 166 180 166 88 167 154 167 89 167 89 168 154 168 90 168 89 169 90 169 49 169 49 170 90 170 92 170 49 171 92 171 91 171 91 172 92 172 153 172 91 173 153 173 46 173 46 174 153 174 93 174 46 175 93 175 94 175 94 176 93 176 150 176 94 177 150 177 44 177 44 178 150 178 149 178 44 179 149 179 95 179 95 180 149 180 148 180 95 181 148 181 43 181 43 182 148 182 147 182 43 183 147 183 42 183 42 184 147 184 40 184 110 185 32 185 144 185 144 186 32 186 33 186 144 187 33 187 75 187 75 188 33 188 96 188 75 189 96 189 36 189 86 190 14 190 180 190 180 191 14 191 15 191 180 192 15 192 97 192 97 193 15 193 17 193 97 194 17 194 178 194 178 195 17 195 98 195 178 196 98 196 99 196 99 197 98 197 100 197 99 198 100 198 176 198 176 199 100 199 18 199 176 200 18 200 101 200 101 201 18 201 102 201 101 202 102 202 103 202 103 203 102 203 21 203 103 204 21 204 104 204 104 205 21 205 23 205 104 206 23 206 105 206 105 207 23 207 106 207 105 208 106 208 140 208 106 209 107 209 140 209 140 210 107 210 27 210 140 211 27 211 141 211 141 212 27 212 108 212 141 213 108 213 109 213 109 214 108 214 29 214 109 215 29 215 110 215 110 216 29 216 30 216 110 217 30 217 32 217 52 218 50 218 134 218 111 219 112 219 130 219 130 220 112 220 113 220 130 221 113 221 16 221 52 222 134 222 119 222 50 223 114 223 134 223 134 224 114 224 48 224 134 225 48 225 47 225 22 226 20 226 130 226 130 227 20 227 19 227 130 228 19 228 111 228 16 229 115 229 130 229 130 230 115 230 116 230 130 231 116 231 13 231 127 232 117 232 134 232 134 233 117 233 118 233 134 234 118 234 119 234 47 235 120 235 134 235 134 236 120 236 121 236 134 237 121 237 45 237 25 238 122 238 130 238 130 239 122 239 24 239 130 240 24 240 22 240 13 241 123 241 130 241 130 242 123 242 12 242 130 243 12 243 11 243 124 244 125 244 134 244 134 245 125 245 126 245 134 246 126 246 127 246 45 247 128 247 134 247 134 248 128 248 129 248 134 249 129 249 41 249 31 250 28 250 130 250 130 251 28 251 26 251 130 252 26 252 25 252 11 253 10 253 130 253 130 254 10 254 7 254 130 255 7 255 131 255 132 256 59 256 134 256 134 257 59 257 133 257 134 258 133 258 124 258 41 259 39 259 134 259 134 260 39 260 135 260 134 261 135 261 37 261 31 262 130 262 134 262 134 263 130 263 60 263 134 264 60 264 132 264 131 265 6 265 130 265 130 266 6 266 5 266 130 267 5 267 3 267 37 268 35 268 134 268 134 269 35 269 34 269 134 270 34 270 136 270 137 271 101 271 103 271 137 272 103 272 138 272 138 273 103 273 104 273 138 274 104 274 139 274 139 275 104 275 105 275 139 276 105 276 206 276 206 277 105 277 140 277 206 278 140 278 212 278 212 279 140 279 141 279 212 280 141 280 210 280 210 281 141 281 109 281 210 282 109 282 142 282 142 283 109 283 110 283 142 284 110 284 209 284 209 285 110 285 144 285 209 286 144 286 143 286 143 287 144 287 75 287 143 288 75 288 208 288 208 289 75 289 145 289 208 290 145 290 218 290 218 291 145 291 76 291 218 292 76 292 146 292 146 293 76 293 77 293 146 294 77 294 221 294 221 295 77 295 147 295 221 296 147 296 223 296 223 297 147 297 148 297 223 298 148 298 222 298 222 299 148 299 149 299 222 300 149 300 214 300 214 301 149 301 150 301 214 302 150 302 215 302 215 303 150 303 151 303 151 304 150 304 93 304 151 305 93 305 187 305 187 306 93 306 153 306 187 307 153 307 152 307 152 308 153 308 92 308 152 309 92 309 184 309 184 310 92 310 90 310 184 311 90 311 185 311 64 312 188 312 88 312 88 313 188 313 185 313 88 314 185 314 154 314 154 315 185 315 90 315 182 316 183 316 83 316 83 317 183 317 155 317 83 318 155 318 81 318 81 319 155 319 157 319 81 320 157 320 156 320 156 321 157 321 158 321 156 322 158 322 159 322 159 323 158 323 160 323 159 324 160 324 161 324 161 325 160 325 162 325 161 326 162 326 163 326 163 327 162 327 164 327 163 328 164 328 62 328 62 329 164 329 165 329 62 330 165 330 63 330 63 331 165 331 166 331 63 332 166 332 70 332 70 333 166 333 197 333 70 334 197 334 74 334 74 335 197 335 193 335 74 336 193 336 167 336 167 337 193 337 168 337 167 338 168 338 169 338 169 339 168 339 191 339 169 340 191 340 170 340 170 341 191 341 172 341 170 342 172 342 171 342 171 343 172 343 173 343 171 344 173 344 67 344 67 345 173 345 174 345 67 346 174 346 64 346 64 347 174 347 186 347 64 348 186 348 188 348 137 349 0 349 101 349 101 350 0 350 175 350 101 351 175 351 176 351 176 352 175 352 2 352 176 353 2 353 99 353 99 354 2 354 177 354 99 355 177 355 178 355 178 356 177 356 1 356 178 357 1 357 97 357 97 358 1 358 179 358 97 359 179 359 180 359 180 360 179 360 181 360 180 361 181 361 87 361 87 362 181 362 199 362 87 363 199 363 182 363 182 364 199 364 200 364 182 365 200 365 183 365 184 366 185 366 152 366 152 367 185 367 187 367 174 368 151 368 186 368 186 369 151 369 187 369 186 370 187 370 188 370 188 371 187 371 185 371 231 372 174 372 173 372 234 373 189 373 193 373 173 374 172 374 231 374 231 375 172 375 191 375 231 376 191 376 190 376 190 377 191 377 168 377 190 378 168 378 196 378 189 379 192 379 193 379 193 380 192 380 194 380 193 381 194 381 168 381 168 382 194 382 195 382 168 383 195 383 196 383 193 384 197 384 234 384 234 385 197 385 166 385 234 386 166 386 198 386 198 387 166 387 165 387 198 388 165 388 201 388 202 389 158 389 236 389 236 390 158 390 157 390 236 391 157 391 237 391 237 392 157 392 238 392 199 393 204 393 200 393 200 394 204 394 183 394 165 395 164 395 201 395 201 396 164 396 162 396 201 397 162 397 202 397 202 398 162 398 160 398 202 399 160 399 158 399 238 400 157 400 203 400 203 401 157 401 155 401 203 402 155 402 205 402 183 403 204 403 155 403 155 404 204 404 241 404 155 405 241 405 205 405 209 406 143 406 254 406 137 407 138 407 243 407 243 408 138 408 139 408 243 409 139 409 244 409 244 410 139 410 206 410 244 411 206 411 246 411 246 412 206 412 248 412 248 413 206 413 212 413 248 414 212 414 207 414 254 415 143 415 256 415 256 416 143 416 208 416 256 417 208 417 257 417 209 418 254 418 142 418 142 419 254 419 255 419 142 420 255 420 210 420 210 421 255 421 211 421 210 422 211 422 212 422 212 423 211 423 250 423 212 424 250 424 207 424 222 425 214 425 213 425 213 426 214 426 215 426 213 427 215 427 151 427 226 428 221 428 216 428 216 429 221 429 223 429 216 430 223 430 217 430 208 431 218 431 257 431 257 432 218 432 146 432 257 433 146 433 219 433 219 434 146 434 221 434 219 435 221 435 220 435 220 436 221 436 226 436 222 437 213 437 223 437 223 438 213 438 228 438 223 439 228 439 217 439 224 440 219 440 220 440 224 441 220 441 225 441 225 442 220 442 226 442 225 443 226 443 227 443 227 444 226 444 216 444 227 445 216 445 280 445 280 446 216 446 217 446 280 447 217 447 281 447 281 448 217 448 228 448 281 449 228 449 229 449 229 450 228 450 213 450 229 451 213 451 230 451 231 452 268 452 174 452 174 453 268 453 230 453 174 454 230 454 151 454 151 455 230 455 213 455 268 456 231 456 190 456 268 457 190 457 232 457 232 458 190 458 196 458 232 459 196 459 265 459 265 460 196 460 195 460 265 461 195 461 233 461 233 462 195 462 194 462 233 463 194 463 260 463 260 464 194 464 192 464 260 465 192 465 261 465 261 466 192 466 189 466 261 467 189 467 235 467 292 468 235 468 234 468 234 469 235 469 189 469 289 470 292 470 198 470 198 471 292 471 234 471 288 472 289 472 201 472 201 473 289 473 198 473 286 474 288 474 202 474 202 475 288 475 201 475 284 476 286 476 236 476 236 477 286 477 202 477 284 478 236 478 237 478 284 479 237 479 283 479 283 480 237 480 238 480 283 481 238 481 282 481 282 482 238 482 203 482 282 483 203 483 239 483 239 484 203 484 205 484 239 485 205 485 240 485 240 486 205 486 241 486 240 487 241 487 296 487 296 488 241 488 204 488 296 489 204 489 293 489 243 490 242 490 137 490 137 491 242 491 293 491 137 492 293 492 199 492 199 493 293 493 204 493 242 494 243 494 244 494 242 495 244 495 245 495 245 496 244 496 246 496 245 497 246 497 247 497 247 498 246 498 248 498 247 499 248 499 277 499 277 500 248 500 207 500 277 501 207 501 249 501 249 502 207 502 250 502 249 503 250 503 251 503 251 504 250 504 211 504 251 505 211 505 253 505 252 506 253 506 255 506 255 507 253 507 211 507 274 508 252 508 254 508 254 509 252 509 255 509 273 510 274 510 256 510 256 511 274 511 254 511 271 512 273 512 257 512 257 513 273 513 256 513 224 514 271 514 219 514 219 515 271 515 257 515 262 516 235 516 309 516 309 517 235 517 292 517 338 518 258 518 242 518 242 519 258 519 343 519 312 520 314 520 268 520 268 521 314 521 315 521 268 522 315 522 259 522 230 523 321 523 323 523 299 524 300 524 293 524 265 525 233 525 264 525 264 526 233 526 260 526 264 527 260 527 262 527 262 528 260 528 261 528 262 529 261 529 235 529 245 530 275 530 242 530 242 531 275 531 263 531 242 532 263 532 338 532 312 533 268 533 264 533 264 534 268 534 232 534 264 535 232 535 265 535 259 536 266 536 268 536 268 537 266 537 267 537 268 538 267 538 230 538 230 539 267 539 319 539 230 540 319 540 321 540 343 541 269 541 242 541 242 542 269 542 344 542 242 543 344 543 293 543 293 544 344 544 298 544 293 545 298 545 299 545 271 546 224 546 329 546 329 547 270 547 271 547 271 548 270 548 272 548 271 549 272 549 273 549 273 550 272 550 331 550 273 551 331 551 274 551 274 552 331 552 332 552 274 553 332 553 252 553 245 554 247 554 275 554 275 555 247 555 277 555 275 556 277 556 276 556 276 557 277 557 249 557 332 558 334 558 252 558 252 559 334 559 278 559 252 560 278 560 253 560 253 561 278 561 276 561 253 562 276 562 251 562 251 563 276 563 249 563 286 564 284 564 305 564 323 565 326 565 230 565 230 566 326 566 279 566 230 567 279 567 229 567 229 568 279 568 327 568 229 569 327 569 281 569 224 570 225 570 329 570 329 571 225 571 227 571 329 572 227 572 327 572 327 573 227 573 280 573 327 574 280 574 281 574 239 575 297 575 282 575 282 576 297 576 305 576 282 577 305 577 283 577 283 578 305 578 284 578 305 579 285 579 286 579 286 580 285 580 306 580 286 581 306 581 288 581 288 582 306 582 287 582 288 583 287 583 289 583 289 584 287 584 290 584 289 585 290 585 292 585 292 586 290 586 291 586 292 587 291 587 309 587 300 588 294 588 293 588 293 589 294 589 295 589 293 590 295 590 296 590 296 591 295 591 297 591 296 592 297 592 240 592 240 593 297 593 239 593 344 594 351 594 298 594 298 595 351 595 354 595 298 596 354 596 299 596 299 597 354 597 353 597 299 598 353 598 300 598 300 599 353 599 301 599 300 600 301 600 294 600 294 601 301 601 302 601 294 602 302 602 295 602 295 603 302 603 303 603 295 604 303 604 297 604 297 605 303 605 304 605 297 606 304 606 305 606 305 607 304 607 357 607 305 608 357 608 285 608 285 609 357 609 356 609 285 610 356 610 306 610 306 611 356 611 355 611 306 612 355 612 287 612 287 613 355 613 358 613 287 614 358 614 290 614 290 615 358 615 307 615 290 616 307 616 291 616 291 617 307 617 308 617 291 618 308 618 309 618 309 619 308 619 359 619 309 620 359 620 262 620 262 621 359 621 310 621 262 622 310 622 264 622 264 623 310 623 311 623 264 624 311 624 312 624 312 625 311 625 313 625 312 626 313 626 314 626 314 627 313 627 316 627 314 628 316 628 315 628 315 629 316 629 360 629 315 630 360 630 259 630 259 631 360 631 345 631 259 632 345 632 266 632 266 633 345 633 317 633 266 634 317 634 267 634 267 635 317 635 318 635 267 636 318 636 319 636 319 637 318 637 320 637 319 638 320 638 321 638 321 639 320 639 322 639 321 640 322 640 323 640 323 641 322 641 324 641 323 642 324 642 326 642 326 643 324 643 325 643 326 644 325 644 279 644 279 645 325 645 346 645 279 646 346 646 327 646 327 647 346 647 328 647 327 648 328 648 329 648 329 649 328 649 330 649 329 650 330 650 270 650 270 651 330 651 348 651 270 652 348 652 272 652 272 653 348 653 347 653 272 654 347 654 331 654 331 655 347 655 350 655 331 656 350 656 332 656 332 657 350 657 349 657 332 658 349 658 334 658 334 659 349 659 333 659 334 660 333 660 278 660 278 661 333 661 335 661 278 662 335 662 276 662 276 663 335 663 336 663 276 664 336 664 275 664 275 665 336 665 337 665 275 666 337 666 263 666 263 667 337 667 339 667 263 668 339 668 338 668 338 669 339 669 340 669 338 670 340 670 258 670 258 671 340 671 341 671 258 672 341 672 343 672 343 673 341 673 342 673 343 674 342 674 269 674 269 675 342 675 352 675 269 676 352 676 344 676 344 677 352 677 351 677 320 678 318 678 361 678 361 679 318 679 317 679 361 680 317 680 345 680 325 681 324 681 361 681 361 682 324 682 322 682 361 683 322 683 320 683 330 684 328 684 361 684 361 685 328 685 346 685 361 686 346 686 325 686 350 687 347 687 361 687 361 688 347 688 348 688 361 689 348 689 330 689 335 690 333 690 361 690 361 691 333 691 349 691 361 692 349 692 350 692 339 693 337 693 361 693 361 694 337 694 336 694 361 695 336 695 335 695 342 696 341 696 361 696 361 697 341 697 340 697 361 698 340 698 339 698 354 699 351 699 361 699 361 700 351 700 352 700 361 701 352 701 342 701 302 702 301 702 361 702 361 703 301 703 353 703 361 704 353 704 354 704 357 705 304 705 361 705 361 706 304 706 303 706 361 707 303 707 302 707 358 708 355 708 361 708 361 709 355 709 356 709 361 710 356 710 357 710 359 711 308 711 361 711 361 712 308 712 307 712 361 713 307 713 358 713 313 714 311 714 361 714 361 715 311 715 310 715 361 716 310 716 359 716 345 717 360 717 361 717 361 718 360 718 316 718 361 719 316 719 313 719</p>
                </triangles>
            </mesh>
        </geometry>
    </library_geometries>
    <library_visual_scenes>
        <visual_scene id="VisualSceneNode" name="VisualScene">
            <node id="node" name="node">
                <instance_geometry url="#shape0-lib">
                    <bind_material>
                        <technique_common/>
                    </bind_material>
                </instance_geometry>
            </node>
        </visual_scene>
    </library_visual_scenes>
    <scene>
        <instance_visual_scene url="#VisualSceneNode"/>
    </scene>
</COLLADA>
