<?xml version="1.0"?>
<robot>
  <gazebo>

    <!-- neck, head, odometry controllers -->
    <plugin name="gazebo_ros_control" filename="libgazebo_ros_control.so" />

    <!-- base controller, listen to cmd_vel and transform into force that will be applied to the robot -->
    <plugin name="ridgeback_ros_force_based_move" filename="libridgeback_ros_force_based_move.so">
      <commandTopic>cmd_vel</commandTopic>
      <odometryTopic>odom</odometryTopic>
      <odometryFrame>odom</odometryFrame>
      <odometryRate>25.0</odometryRate>
      <robotBaseFrame>base_link</robotBaseFrame>
      <cmdVelTimeOut>0.25</cmdVelTimeOut>
      <!-- do not publish odometry by using this plugin, (only diff supported) -->
      <publishOdometryTf>0</publishOdometryTf>
      <yaw_velocity_p_gain>70.0</yaw_velocity_p_gain>
      <x_velocity_p_gain>4000.0</x_velocity_p_gain>
      <y_velocity_p_gain>4000.0</y_velocity_p_gain>
    </plugin>

  </gazebo>

  <gazebo reference="base_link">
    <material>Gazebo/Grey</material>
    <gravity>true</gravity>
  </gazebo>

   <!-- Wheel friction to zero, as movement is handled by applying forces at
       the body level. -->
  <gazebo reference="front_left_wheel_link">
    <material>Gazebo/DarkGrey</material>
    <mu1>0.0</mu1>
    <mu2>0.0</mu2>
  </gazebo>

  <gazebo reference="front_right_wheel_link">
    <material>Gazebo/DarkGrey</material>
    <mu1>0.0</mu1>
    <mu2>0.0</mu2>
  </gazebo>

  <gazebo reference="rear_left_wheel_link">
    <material>Gazebo/DarkGrey</material>
    <mu1>0.0</mu1>
    <mu2>0.0</mu2>
  </gazebo>

  <gazebo reference="rear_right_wheel_link">
    <material>Gazebo/DarkGrey</material>
    <mu1>0.0</mu1>
    <mu2>0.0</mu2>
  </gazebo>

 <!-- Refer to Hokuyo URG-04LX-UG01 datasheet & /scan_front topic on real mbot-->
  <gazebo reference="base_laser_front_link">
  <sensor type="ray" name="front_hokuyo_sensor">
      <pose>0 0 0 0 0 0</pose>
      <visualize>false</visualize>
      <update_rate>4.3</update_rate>
   <ray>
    <scan>
      <horizontal>
        <samples>512</samples>
        <resolution>1</resolution>
        <min_angle>-1.5707963</min_angle><!-- restricted due to base shelf -->
        <max_angle>1.5707963</max_angle>
      </horizontal>
    </scan>
    <range>
      <min>0.0199999</min>
      <max>5.6</max>
      <resolution>0.001</resolution> <!-- res 1mm, accuracy between +-30mm to 120mm -->
    </range>
    <noise>
      <type>gaussian</type>
      <!-- Noise parameters based on published spec for Hokuyo laser
           achieving "+-30mm" accuracy at range < 10m.  A mean of 0.0m and
           stddev of 0.01m will put 99.7% of samples within 0.03m of the true
           reading. -->
      <mean>0.0</mean>
      <stddev>0.01</stddev>
    </noise>
  </ray>
  <plugin name="gazebo_ros_front_hokuyo_controller" filename="libgazebo_ros_laser.so">
    <topicName>/scan_front</topicName>
    <frameName>base_laser_front_link</frameName>
  </plugin>
  </sensor>
  </gazebo>

  <!-- Specs from Hokuyo UTM-30LX datasheet & /scan_rear topic on real mbot-->
  <gazebo reference="base_laser_rear_link">
  <sensor type="ray" name="rear_hokuyo_sensor">
      <pose>0 0 0 0 0 0</pose>
      <visualize>false</visualize>
      <update_rate>34.5</update_rate>
   <ray>
    <scan>
      <horizontal>
        <samples>720</samples>
        <resolution>1</resolution>
        <min_angle>-1.570796</min_angle>
        <max_angle>1.570796</max_angle>
      </horizontal>
    </scan>
    <range>
      <min>0.023</min>
      <max>60.0</max><!-- to be verified, mbot$ rostopic echo /scan_rear range_max -60.0m, datasheet -30.0m -->
      <resolution>0.001</resolution>
    </range>
    <noise>
      <type>gaussian</type>
      <!-- Noise parameters based on published spec for Hokuyo laser
           achieving "+-30mm" accuracy at range < 10m.  A mean of 0.0m and
           stddev of 0.01m will put 99.7% of samples within 0.03m of the true
           reading. -->
      <mean>0.0</mean>
      <stddev>0.01</stddev>
    </noise>
  </ray>
  <plugin name="gazebo_ros_rear_hokuyo_controller" filename="libgazebo_ros_laser.so">
    <topicName>/scan_rear</topicName>
    <frameName>base_laser_rear_link</frameName>
  </plugin>
  </sensor>
  </gazebo>
</robot>
